[
    {
         "id": "4",
         "ack": "Meet with the parents",
         "time": "14:00",
         "date": "6-01-2014"
    },
    {
         "id": "5",
         "ack": "Do something :)",
         "time": "20:00",
         "date": "6-01-2014"
    },
    {
         "id": "6",
         "ack": "Visit aunt Julia",
         "time": "16:00",
         "date": "6-01-2014"
    },
    {
         "id": "7",
         "ack": "Maths exam",
         "time": "09:00",
         "date": "6-01-2014"
    }
] 