[
    {
         "id": "4",
         "ack": "Meet with the parents",
         "time": "14:00",
        "date": "25-12-2013"
    },
    {
         "id": "11",
         "ack": "Meet Joe Black",
         "time": "20:00",
         "date": "26-12-2011"
    }
]